module naturo

go 1.18

require (
	github.com/go-playground/validator/v10 v10.11.0
	github.com/gorilla/mux v1.8.0
	github.com/joho/godotenv v1.4.0
	golang.org/x/crypto v0.0.0-20220507011949-2cf3adece122
	gorm.io/driver/mysql v1.3.3
	gorm.io/gorm v1.23.5
)

require (
	github.com/go-playground/locales v0.14.0 // indirect
	github.com/go-playground/universal-translator v0.18.0 // indirect
	github.com/go-sql-driver/mysql v1.6.0 // indirect
	github.com/jinzhu/inflection v1.0.0 // indirect
	github.com/jinzhu/now v1.1.5 // indirect
	github.com/leodido/go-urn v1.2.1 // indirect
	golang.org/x/sys v0.0.0-20210806184541-e5e7981a1069 // indirect
	golang.org/x/text v0.3.7 // indirect
)
